1 10 20
100 200 125
201 210 89
900 1000 174
53394 245720 443
129963 115155 349
16001 162998 383
20161 30124 308
194728 91067 383
69332 106874 354
130155 154467 375
167187 78513 383
12244 213016 383
217920 231515 443
220400 237441 443
69568 155993 375
22038 131628 354
228428 28266 386
202808 89187 383
36229 111782 354
15618 149021 375
76084 142055 354
18351 165892 383
55551 86469 351
242010 5582 443
201928 65373 383
203362 51178 383
12016 141389 354
23847 55593 340
171800 142510 383
190865 154103 383
24200 108126 354
167601 204900 365
90056 11850 351
111007 20756 354
152571 38629 375
41425 21535 324
3148 246327 443
19437 152501 375
78993 156580 383
10645 168658 383
56204 225191 386
106530 199658 383
206481 121579 383
164812 246017 443
162289 131367 383
95365 144969 375
35460 69540 340
100181 133049 354
12070 27836 308
10256 160343 383
248744 164592 443
79924 206962 383
94519 1509 351
161263 166142 352
177338 244589 443
139517 7532 354
65860 18990 340
37038 235765 443
208826 50593 383
47622 247060 443
56111 62616 335
148319 233373 443
138810 21229 354
190601 236494 443
134681 54740 354
217345 45776 386
71055 198572 383
136735 158121 383
95865 124759 354
240681 217746 443
210206 43075 383
246725 74848 443
149716 97252 375
83020 95442 333
204415 138720 383
187898 196501 360
43637 40535 288
106018 168583 383
62477 35469 340
237455 130678 443
174822 166102 347
12357 87972 351
93716 219149 386
191973 179162 365
7189 226288 386
197199 74950 383
158593 77979 383
183106 247042 443
34128 247871 443
86511 194786 383
170997 79551 383
114108 56954 354
228536 65991 386
190564 217610 386
191826 196042 360
56507 165991 383
113905 24422 354
98447 227910 386
244636 52166 443
72683 122856 354
145808 132660 375
223909 86733 386
81960 48712 351
156516 117748 383
542419 768277 509
846848 641217 525
115342 188046 383
574108 137156 470
46385 122129 354
976179 272138 525
223191 588313 470
77671 785764 509
901898 194970 525
164767 28581 383
991908 2446 525
67708 826793 509
460236 267782 449
617137 669144 509
130798 416825 449
236870 707746 509
340165 329063 366
988491 884901 507
83536 266823 443
912331 623621 525
879818 690713 525
529163 240570 470
219279 717806 509
249638 839091 525
279592 164730 443
266436 441971 449
543607 938922 525
564193 130370 470
719256 414279 509
751032 246284 509
842608 741887 525
592960 835215 509
197300 256293 443
705269 926576 525
27441 415376 449
533765 982280 525
856443 343562 525
72576 360717 443
400495 701027 509
566133 414550 470
444172 291854 449
771388 813921 468
144736 891410 525
356529 843336 525
103026 289070 443
654734 565567 509
161768 958174 525
829777 608227 509
720389 139211 509
976000 273385 525
540222 134964 470
524397 611796 452
598755 410679 470
748721 276514 509
37285 581668 470
699503 633023 442
444181 123530 449
860497 837679 525
721974 101784 509
231506 971322 525
749093 527547 509
416360 975101 525
698926 118281 509
159884 99388 383
761263 151403 509
665432 24187 509
377356 631058 509
124584 601919 470
902031 130701 525
566363 587074 434
736869 624145 509
294385 723971 509
537267 863189 525
738476 15736 509
79878 448326 449
565757 438485 470
596250 824752 509
128198 304635 443
253406 876692 525
241375 995841 525
219290 351896 443
646453 43261 509
974003 544099 525
480796 856159 525
752649 146097 509
367791 647859 509
852161 916576 476
25199 64454 340
641130 694249 442
249439 743955 509
941247 698768 525
688467 423723 509
723943 785602 468
323589 33786 443
980061 706582 525
388215 178226 443
450439 937247 525
721032 340604 509
712267 710621 380
