1 10 20
100 200 125
201 210 89
900 1000 174
802130 802188 238
248279 248307 182
976024 976026 184
743653 743636 256
830847 830806 251
450829 450925 276
218189 218285 187
953321 953263 414
295476 295409 265
19032 19028 80
182745 182795 223
868119 868160 189
731879 731887 212
783084 783045 225
586986 587024 235
41786 41716 182
834442 834350 300
658830 658882 186
823988 824007 220
394934 394882 268
305472 305465 234
975580 975487 202
956205 956139 352
638682 638628 341
710399 710494 212
740622 740715 287
778365 778353 225
835266 835166 207
219032 219095 218
553646 553636 253
205704 205733 218
274121 274033 239
488803 488795 196
815863 815769 269
440222 440123 201
344202 344268 260
852966 852898 251
711227 711298 212
501606 501623 165
47485 47416 190
805201 805174 251
794283 794231 269
658502 658543 292
407241 407286 113
904227 904136 264
642910 643006 354
693295 693226 349
363616 363621 211
332574 332488 229
202435 202448 267
71192 71249 219
845586 845629 158
630900 630932 235
188193 188282 285
647664 647715 279
370263 370338 286
194749 194767 223
172193 172196 166
648112 648038 279
334644 334736 291
553953 553985 253
610348 610365 160
571462 571393 222
15121 15038 271
457216 457149 263
49950 49941 203
125676 125712 287
514034 514045 302
662645 662599 248
414869 414790 250
944805 944741 264
282581 282675 314
740145 740155 168
733548 733462 305
432532 432457 325
4603 4592 153
392111 392075 193
951382 951367 153
831291 831298 207
581671 581733 297
838903 838994 220
850051 849997 264
440761 440780 294
128016 128033 256
486956 486894 364
935325 935245 246
55797 55756 185
798574 798543 300
195300 195374 223
561041 561051 222
123669 123665 194
207478 207408 249
294661 294676 128
973044 972971 321
359500 359425 304
732691 732685 181
271044 271097 239
716924 716997 305
555322 555273 191
340152 340100 247
138200 138143 176
272003 271978 177
766585 766505 225
26564 26598 171
421720 421692 250
583054 582992 328
377908 377903 131
814621 814558 238
115597 115535 349
588920 588846 235
169368 169446 197
507776 507867 289
750162 750215 212
475556 475577 152
502299 502399 258
102246 102244 129
651200 651110 261
211438 211488 267
982010 982104 277
574085 574098 178
965187 965231 246
663265 663237 261
210053 210077 280
250088 250182 301
379519 379535 242
537114 537194 240
519370 519413 227
492630 492710 258
982506 982449 290
93839 93751 253
563392 563416 253
416846 416931 188
124914 124858 212
480635 480656 183
669123 669220 261
394588 394673 405
238091 238136 151
833755 833844 357
591587 591630 284
568566 568629 253
885398 885454 370
315281 315208 278
96484 96490 147
359482 359541 273
899631 899565 225
392856 392918 175
291774 291772 265
297641 297672 234
693603 693570 305
712860 712783 305
729526 729564 243
449886 449955 219
288380 288412 208
262075 262062 177
983952 983904 184
626090 626076 186
914502 914544 202
474819 474803 307
749617 749698 256
165696 165665 166
514381 514328 258
9958 10002 180
716403 716432 243
241117 241142 182
708407 708367 212
798772 798869 300
555576 555629 284
485760 485856 276
590082 590027 297
467342 467379 245
772930 772864 225
936989 936929 383
705922 705891 274
783784 783759 331
295603 295585 159
684348 684436 230
422599 422645 281
188826 188790 179
178950 178884 241
899482 899454 202
664559 664597 230
424743 424704 250
823222 823225 176
290751 290839 296
869697 869781 251
601991 602042 279
824542 824453 282
854869 854968 251
815426 815482 269
580314 580369 222
458753 458763 157
24649 24696 264
53417 53320 216
11666 11568 206
861979 862032 326
860106 860192 251
571686 571764 235
414582 414676 281
217252 217335 324
760374 760468 380
353839 353921 229
779247 779163 300
987681 987754 352
591815 591876 297
962554 962613 277
695472 695418 243
884390 884370 282
240355 240318 205
733698 733787 243
442865 442808 263
389385 389475 224
545400 545456 284
936367 936328 277
901863 901945 233
237953 237993 151
44844 44801 195
383616 383596 224
167150 167249 321
908880 908892 202
81464 81471 183
165670 165583 228
248585 248587 182
287877 287866 283
811784 811684 207
130182 130128 207
197324 197424 267
563389 563352 253
350939 350965 273
131100 131068 225
635906 635842 248
209219 209259 311
891638 891651 189
904275 904211 264
911144 911076 339
919849 919942 339
876970 877046 295
945660 945648 246
725730 725688 212
545705 545778 284
366302 366329 242
