249319 884750 525
960091 746656 525
39260 881980 525
637866 251788 509
461246 869716 525
918762 52476 525
265349 801106 509
757071 826052 468
544325 986369 525
548644 545334 452
411866 335091 449
539858 187119 470
331215 895883 525
299726 586059 470
76750 98783 351
901013 436195 525
212032 77088 383
407433 657911 509
120984 816006 509
666019 328241 509
718563 4461 509
811387 141179 509
427188 203535 449
923757 305211 525
750591 459006 509
327158 961284 525
888787 677108 525
622791 828991 509
824434 774678 468
779167 632363 504
785679 496507 509
839607 85071 525
266798 88656 443
248052 214783 443
931306 291011 525
142872 953970 525
658299 771210 504
88008 173881 383
129418 894007 525
777126 416090 509
528740 226251 470
139398 743990 509
912476 657930 525
261526 772214 509
56307 550514 470
180001 694398 509
798165 724438 468
691943 537137 509
855907 629628 525
835432 258016 509
24450 279373 443
70459 274955 443
515576 193695 470
272012 564562 470
703411 444633 509
694537 338844 509
848708 328326 525
105695 179499 383
782746 897052 525
512069 345218 470
932081 576238 525
495808 323940 449
618983 584699 447
864525 611227 525
480309 874468 525
772795 781688 437
859716 97468 525
685625 684126 354
993276 941353 458
278406 961444 525
603845 704567 509
220042 701924 509
487168 311453 449
898335 564745 525
313430 380576 441
96693 663851 509
282073 740456 509
42817 497631 449
40222 422467 449
384645 972285 525
820731 255412 509
976150 876671 507
232152 505157 449
697602 288119 509
502961 380179 449
915934 687496 525
302719 692321 509
709546 170812 509
467520 50890 449
647637 219783 509
924038 91824 525
273373 39356 443
746933 904342 525
877567 894130 445
722036 315558 509
868480 532216 525
139844 144019 375
887344 313913 525
170759 900017 525
535383 172099 470
461584 163192 449
869172 695595 525
727301 169623 509
530295 419829 470
397752 283971 441
829338 659640 504
680361 820850 504
683279 567564 509
24961 806908 509
27017 821761 509
287790 78650 443
910864 835373 525
267364 82741 443
471006 389057 449
445422 352172 449
1469 108964 354
181542 683610 509
339945 943853 525
884386 54490 525
400438 883508 525
314136 470141 449
824139 656742 504
503524 110425 449
668129 283381 509
663495 369549 509
672908 746840 504
506137 998470 525
196355 103188 383
486894 316227 449
910741 950154 507
586913 553724 434
236738 233691 381
710551 124872 509
42979 548642 470
53067 160359 383
499178 785153 509
41050 219024 386
719346 923995 525
947402 977917 458
691940 54129 509
340679 134875 443
963401 939511 414
551543 793119 509
1020 700420 509
753784 340829 509
262626 500739 449
508598 936176 525
103615 213458 383
507680 980610 525
993746 702801 525
899219 934191 476
390591 368347 436
923668 190112 525
611019 475714 470
842600 18185 525
862864 227861 525
135893 69643 354
899975 278149 525
508079 802515 509
645684 234424 509
706941 53874 509
681662 917849 525
108604 997936 525
21844 15154 279
633247 493299 509
713679 796945 468
470577 57755 449
256690 713253 509
658192 665592 442
406358 825719 509
215469 97447 383
750885 925637 525
258980 701698 509
299930 706120 509
659225 575789 509
155718 336656 443
681265 618444 509
81211 635837 509
261418 386895 441
89948 456594 449
511501 328591 449
335698 767206 509
6237 8301 257
865261 362719 525
756900 867682 525
36005 114674 354
688019 415471 509
93705 364108 443
797718 868121 525
287956 241503 407
583715 646060 509
879944 426683 525
3530 120526 354
675316 788378 504
9841 110810 354
538410 366217 470
824419 921081 525
130323 253091 443
232501 758231 509
830233 9872 509
211733 110096 383
286536 637706 509
741370 674349 504
336338 944195 525
460390 162210 449
707150 369371 509
173941 186506 365
415138 95351 449
791267 969387 525
316891 127532 443
847121 60813 525
466233 988035 525
777208 253213 509
725049 328712 509
992043 979655 427
236267 365833 441
618871 142477 470
997865 282116 525
858643 803017 525
950461 687051 525
431300 559406 470
841085 211117 525
655081 362116 509
918097 200104 525
112349 545175 470
966683 236996 525
222669 852505 525
479463 794665 509
6731 355974 443
962924 577317 525
623223 535002 452
735102 739087 424
562094 253878 470
134647 165311 383
463909 96395 449
100442 621872 470
271528 124732 443
641508 522975 509
466540 498590 426
130730 662242 509
396047 951840 525
510364 488609 426
49418 895271 525
979416 396281 525
982065 164227 525
618615 17229 470
654012 253859 509
775728 783587 437
982724 574013 525
90542 163342 383
