1 10 20
100 200 125
201 210 89
900 1000 174
1 2 2
2 3 8
1 999999 525
999999 999999 259
999999 1 525
123456 654321 509
666 666 114
6969 6969 58
666 6969 262
420 666 145
420 6969 262
69 69 15
69 96 116
69 420 144
69 666 145
13 31 112
987456 654789 525
123 456 144
654 324 145
55 656494 509
466446 646466 509
120232 133200 344
996791 127499 525
618642 792980 509
475800 194411 449
826877 457697 509
750732 423285 509
257937 330511 407
571082 51703 470
147887 363891 443
766435 503040 509
236723 913255 525
354898 745731 509
695526 846108 525
576818 980591 525
8750 446169 449
538566 493490 470
700296 372142 509
508198 471525 426
80940 217964 386
952720 686893 525
9669 951269 525
115851 738174 509
922386 206390 525
266004 873822 525
599702 13229 470
959764 80868 525
534958 147046 470
43636 419755 449
326819 58728 443
563051 829534 509
240053 730245 509
384791 493109 449
15501 619170 470
455522 584936 470
935323 407410 525
435625 94260 449
985261 121323 525
835085 487770 509
614836 879563 525
547049 369810 470
356959 218047 443
304798 427299 449
104849 925056 525
69160 558524 470
937745 792302 525
988723 727912 525
846765 655790 525
571080 538207 452
182506 93503 383
184501 408913 443
423300 450769 418
860763 790238 525
658213 730814 504
304751 898324 525
736620 906298 525
25645 713154 509
72634 429018 449
537503 462771 470
935663 264019 525
568160 465228 470
557114 155333 470
754610 668855 504
611268 827649 509
261550 83352 443
263104 39501 443
794285 589251 509
684992 932215 525
812236 407459 509
170253 20770 383
868039 361126 525
33444 685790 509
530735 296874 470
532222 249539 470
87687 324667 443
209765 710723 509
82619 769641 509
305589 623059 470
624592 66266 470
886887 30207 525
265263 216865 443
857919 665825 525
441921 610392 470
755100 239839 509
292889 508247 449
26256 228551 386
111702 725409 509
225516 859369 525
30370 321174 443
492500 251239 449
649730 240324 509
649138 416893 509
288529 96834 443
118367 308424 443
782472 444987 509
508043 759057 509
526878 786666 509
345296 480029 449
2035 429569 449
472874 565638 470
592917 15343 470
823876 436434 509
862645 308465 525
181917 390757 443
995555 559073 525
307902 417489 449
219505 483515 449
788630 320828 509
411051 658090 509
744252 941575 525
805257 485041 509
466110 376624 449
392575 698468 509
801839 272411 509
933106 109521 525
403036 157658 443
186366 13892 383
510090 716898 509
314475 488092 449
243754 770569 509
885457 426251 525
630528 669258 442
614572 888618 525
113083 779395 509
789013 626335 504
252196 258527 363
348073 589532 470
717554 429394 509
595334 939281 525
66596 728455 509
797879 856064 525
662771 942665 525
423722 599579 470
302868 115630 443
756300 70075 509
861236 74617 525
342305 902920 525
436954 669002 509
683786 56891 509
652443 500234 509
309095 565167 470
108288 276909 443
324143 719567 509
482965 629073 509
117616 929802 525
254305 398942 441
250669 569747 470
861346 614347 525
90983 774143 509
116821 549116 470
573804 578442 390
20057 761355 509
954637 536286 525
708676 762049 424
835104 101465 509
687824 510716 509
484550 779548 509
855089 76272 525
842298 928835 476
813959 307564 509
431689 23839 449
542879 341336 470
640962 794187 504
494617 378530 449
631511 511443 509
129618 788974 509
236675 732329 509
145927 206639 383
93545 393075 443
138392 391696 443
100446 422368 449
688941 404460 509
113598 380779 443
163619 263701 443
216830 569081 470
149926 314438 443
332712 133832 443
336871 285408 389
345233 892053 525
635228 648892 416
138663 758985 509
335442 681662 509
372453 209928 443
289727 127661 443
545057 364266 470
143785 170014 383
774755 509116 509
401536 140390 443
489617 415959 444
808503 926504 525
683267 569870 509
387263 99403 443
547573 856753 525
156699 915496 525
427860 708085 509
805709 543153 509
408656 92417 443
99061 446667 449
429304 15170 449
651867 824831 504
748820 539747 509
878407 746260 525
