49634 22807 324
24832 47902 324
28639 5192 308
8052 4512 262
10711 35543 311
32499 32919 267
39201 42669 306
4308 36530 324
43424 42301 257
29030 44754 324
7977 28593 308
2814 34875 311
7627 7386 239
48723 5604 324
25963 34563 311
12345 12345 51
790287 74659 509
812021 705949 468
284873 851537 525
510895 142511 449
806095 24404 509
604553 927419 525
375417 412787 449
219704 367459 443
35677 496837 449
513437 72722 470
403165 892189 525
827003 508301 509
772607 149969 509
992276 647088 525
947028 333701 525
529055 964328 525
927184 988893 507
717129 376693 509
905027 471546 525
140635 288584 443
708818 29328 509
47630 856980 525
116369 622034 470
722987 783238 468
299455 913982 525
293900 298020 358
88612 517437 470
350654 428491 449
800188 727698 468
170442 863002 525
626772 779847 504
790696 544455 509
681731 540184 509
412245 890396 525
350701 471027 449
997180 244754 525
554437 808715 509
518376 309424 470
424391 192408 449
18740 83943 351
839100 898912 445
87284 422426 449
761727 933327 525
524701 200716 470
433876 103298 449
621934 991388 525
984881 873941 507
73724 759371 509
516326 716524 509
181768 96211 383
152268 725350 509
420148 632561 509
695131 672894 442
683713 810934 504
615744 78126 470
171643 250601 443
443772 464936 444
711316 936112 525
194040 694851 509
646526 903341 525
152229 608261 470
85329 445177 449
220964 444063 449
552677 876923 525
187507 352383 443
573252 865935 525
87440 466490 449
911351 150938 525
417320 206235 449
211766 384901 443
216109 680273 509
677489 505363 509
599177 577223 434
568142 376422 470
585120 120446 470
501987 255556 449
831824 653591 504
95278 414757 449
897524 278988 525
650715 932825 525
850569 519020 525
888614 7262 525
402120 760294 509
730516 214296 509
686435 49578 509
829702 73434 509
336662 530739 470
600503 188128 470
747885 307415 509
331862 306288 384
506652 143216 449
853505 624944 525
210670 493035 449
771400 489826 509
560469 597621 434
236680 573263 470
168890 452078 449
945251 703503 525
603089 785867 509
295800 536532 470
946674 641483 525
705964 101537 509
699614 252629 509
735088 226740 509
355051 329168 441
714227 302898 509
785811 560265 509
987143 210403 525
743925 283492 509
473173 520426 470
632482 478395 509
301410 925561 525
625284 696475 509
935983 618384 525
816023 758668 468
457994 385198 449
741374 877249 525
787343 569612 509
169220 860295 525
690494 122341 509
811616 556215 509
363954 168424 443
481717 72143 449
694171 143982 509
116281 508230 449
525118 581606 452
783256 137710 509
430144 189065 449
853218 741905 525
559697 928894 525
398098 953967 525
749035 397550 509
349871 510937 449
437676 346182 449
643154 816551 504
9056 689479 509
539512 8865 470
682518 801832 504
474496 38330 449
308809 981042 525
183808 333563 443
757099 926773 525
488232 926943 525
178950 985907 525
703867 218567 509
958587 684803 525
815924 460337 509
433913 902180 525
675952 863443 525
685749 892582 525
25508 284592 443
257271 796613 509
532959 371488 470
176183 823882 509
399463 196675 443
109740 49490 354
95600 565147 470
946014 243411 525
146087 709780 509
302181 661737 509
10115 44126 324
3780 49225 324
43553 26255 324
37080 26745 324
1724 5369 238
2755 30860 308
8921 47231 324
21890 3207 279
36015 33442 324
14570 10516 276
7312 7300 195
43586 42264 257
45229 24703 324
17843 15111 279
33678 15482 308
20303 40101 324
44507 47674 314
40682 9630 324
15514 42740 324
15936 39196 324
24310 23037 282
35195 13691 311
45662 15127 324
21645 9487 279
47897 35462 324
39447 24283 324
19716 17932 274
43014 27658 324
6933 1695 262
29644 39815 324
30824 33582 285
3627 10584 262
22778 14410 279
36189 35894 249
36648 21357 324
6621 23847 282
8037 35447 311
14050 31643 308
12405 34999 311
26713 17194 308
24362 32519 308
16974 27236 308
19838 16197 279
32382 24199 308
